[1] Config.pm:304> INFO - This is Biber 2.12
[1] Config.pm:307> INFO - Logfile is 'kursinis.blg'
[166] biber:315> INFO - === Tue Mar 10, 2020, 07:48:50
[246] Biber.pm:371> INFO - Reading 'kursinis.bcf'
[368] Biber.pm:889> INFO - Found 1 citekeys in bib section 0
[414] Biber.pm:4093> INFO - Processing section 0
[437] Biber.pm:4254> INFO - Looking for bibtex format file 'bibliografija.bib' for section 0
[460] bibtex.pm:1512> INFO - LaTeX decoding ...
[464] bibtex.pm:1329> INFO - Found BibTeX data source 'bibliografija.bib'
[473] Utils.pm:193> WARN - BibTeX subsystem: /tmp/KwlUfi8RnB/bibliografija.bib_28638.utf8, line 5, warning: 148 characters of junk seen at toplevel
[493] UCollate.pm:68> INFO - Overriding locale 'lt-LT' defaults 'normalization = NFD' with 'normalization = prenormalized'
[493] UCollate.pm:68> INFO - Overriding locale 'lt-LT' defaults 'variable = shifted' with 'variable = non-ignorable'
[494] Biber.pm:3921> INFO - Sorting list 'anyt/global//global/global' of type 'entry' with template 'anyt' and locale 'lt-LT'
[497] bbl.pm:636> INFO - Writing 'kursinis.bbl' with encoding 'UTF-8'
[498] bbl.pm:739> INFO - Output to kursinis.bbl
[498] Biber.pm:110> INFO - WARNINGS: 1
