\relax 
\abx@aux@refcontext{anyt/global//global/global}
\@writefile{toc}{\boolfalse {citerequest}\boolfalse {citetracker}\boolfalse {pagetracker}\boolfalse {backtracker}\relax }
\@writefile{lof}{\boolfalse {citerequest}\boolfalse {citetracker}\boolfalse {pagetracker}\boolfalse {backtracker}\relax }
\@writefile{lot}{\boolfalse {citerequest}\boolfalse {citetracker}\boolfalse {pagetracker}\boolfalse {backtracker}\relax }
\select@language {lithuanian}
\@writefile{toc}{\defcounter {refsection}{0}\relax }\@writefile{toc}{\select@language {lithuanian}}
\@writefile{lof}{\defcounter {refsection}{0}\relax }\@writefile{lof}{\select@language {lithuanian}}
\@writefile{lot}{\defcounter {refsection}{0}\relax }\@writefile{lot}{\select@language {lithuanian}}
\@writefile{toc}{\defcounter {refsection}{0}\relax }\@writefile{toc}{\contentsline {section}{Įvadas}{2}\protected@file@percent }
\abx@aux@cite{AG08}
\abx@aux@segm{0}{0}{AG08}
\abx@aux@cite{Sve16}
\abx@aux@segm{0}{0}{Sve16}
\abx@aux@cite{Car18}
\abx@aux@segm{0}{0}{Car18}
\abx@aux@cite{Fra18}
\abx@aux@segm{0}{0}{Fra18}
\@writefile{toc}{\defcounter {refsection}{0}\relax }\@writefile{toc}{\contentsline {section}{\numberline {1.}Grafų duomenų bazės}{3}\protected@file@percent }
\@writefile{toc}{\defcounter {refsection}{0}\relax }\@writefile{toc}{\contentsline {subsection}{\numberline {1.1.}Duomenų struktūra}{3}\protected@file@percent }
\abx@aux@cite{CWL14}
\abx@aux@segm{0}{0}{CWL14}
\abx@aux@cite{Neo18}
\abx@aux@segm{0}{0}{Neo18}
\abx@aux@cite{PS08}
\abx@aux@segm{0}{0}{PS08}
\@writefile{toc}{\defcounter {refsection}{0}\relax }\@writefile{toc}{\contentsline {subsection}{\numberline {1.2.}Primytivių užklausų vykdymas}{5}\protected@file@percent }
\@writefile{toc}{\defcounter {refsection}{0}\relax }\@writefile{toc}{\contentsline {section}{\numberline {2.}Grafų duomenų užtikrinimas RDBVS}{7}\protected@file@percent }
\@writefile{toc}{\defcounter {refsection}{0}\relax }\@writefile{toc}{\contentsline {subsection}{\numberline {2.1.}Modeliuojami duomenys}{7}\protected@file@percent }
\@writefile{toc}{\defcounter {refsection}{0}\relax }\@writefile{toc}{\contentsline {subsection}{\numberline {2.2.}Įgyvendinimas GDBVS (Neo4J)}{8}\protected@file@percent }
\@writefile{toc}{\defcounter {refsection}{0}\relax }\@writefile{toc}{\contentsline {subsection}{\numberline {2.3.}Įgyvendinimas RDBVS (Postgresql)}{8}\protected@file@percent }
\@writefile{toc}{\defcounter {refsection}{0}\relax }\@writefile{toc}{\contentsline {subsubsection}{\numberline {2.3.1.}Lankstus įgyvendinimas}{9}\protected@file@percent }
\@writefile{toc}{\defcounter {refsection}{0}\relax }\@writefile{toc}{\contentsline {subsubsection}{\numberline {2.3.2.}Struktūrizuotas įgyvendinimas}{10}\protected@file@percent }
\@writefile{toc}{\defcounter {refsection}{0}\relax }\@writefile{toc}{\contentsline {subsubsection}{\numberline {2.3.3.}Sintaksinis palengvinimas}{12}\protected@file@percent }
\@writefile{toc}{\defcounter {refsection}{0}\relax }\@writefile{toc}{\contentsline {section}{Rezultatai ir išvados}{15}\protected@file@percent }
\@writefile{toc}{\defcounter {refsection}{0}\relax }\@writefile{toc}{\contentsline {section}{Literatūra}{16}\protected@file@percent }
\@writefile{toc}{\defcounter {refsection}{0}\relax }\@writefile{toc}{\contentsline {section}{Santrumpos}{17}\protected@file@percent }
\@writefile{toc}{\defcounter {refsection}{0}\relax }\@writefile{toc}{\contentsline {section}{\MakeUppercase  {Priedai}}{17}\protected@file@percent }
\@writefile{toc}{\defcounter {refsection}{0}\relax }\@writefile{toc}{\contentsline {subsection}{1 priedas.\nobreakspace  {}MATCHING transliatoriaus implementacija Racket kalba}{18}\protected@file@percent }
\@writefile{toc}{\defcounter {refsection}{0}\relax }\@writefile{toc}{\contentsline {subsection}{2 priedas.\nobreakspace  {}Neo4j duomenų sukūrimo sakinys}{23}\protected@file@percent }
\@writefile{toc}{\defcounter {refsection}{0}\relax }\@writefile{toc}{\contentsline {subsection}{3 priedas.\nobreakspace  {}SQL lankstaus formato įgyvendinimo duomenų sukūrimo sakiniai}{25}\protected@file@percent }
\@writefile{toc}{\defcounter {refsection}{0}\relax }\@writefile{toc}{\contentsline {subsection}{4 priedas.\nobreakspace  {}SQL nelankstaus įgyvendinimo duomenų sukūrimo sakiniai}{28}\protected@file@percent }
\abx@aux@refcontextdefaultsdone
\abx@aux@defaultrefcontext{0}{AG08}{anyt/global//global/global}
\abx@aux@defaultrefcontext{0}{Car18}{anyt/global//global/global}
\abx@aux@defaultrefcontext{0}{CWL14}{anyt/global//global/global}
\abx@aux@defaultrefcontext{0}{Fra18}{anyt/global//global/global}
\abx@aux@defaultrefcontext{0}{Neo18}{anyt/global//global/global}
\abx@aux@defaultrefcontext{0}{PS08}{anyt/global//global/global}
\abx@aux@defaultrefcontext{0}{Sve16}{anyt/global//global/global}
