[0] Config.pm:304> INFO - This is Biber 2.12
[1] Config.pm:307> INFO - Logfile is 'kursinis.blg'
[144] biber:315> INFO - === Thu Feb  7, 2019, 09:00:11
[285] Biber.pm:371> INFO - Reading 'kursinis.bcf'
[419] Biber.pm:889> INFO - Found 7 citekeys in bib section 0
[511] Biber.pm:4093> INFO - Processing section 0
[565] Biber.pm:4254> INFO - Looking for bibtex format file 'bibliografija.bib' for section 0
[581] bibtex.pm:1512> INFO - LaTeX decoding ...
[621] bibtex.pm:1329> INFO - Found BibTeX data source 'bibliografija.bib'
[677] Utils.pm:193> WARN - BibTeX subsystem: /tmp/KlS93rgGdp/bibliografija.bib_24404.utf8, line 4, warning: 148 characters of junk seen at toplevel
[678] Utils.pm:193> WARN - BibTeX subsystem: /tmp/KlS93rgGdp/bibliografija.bib_24404.utf8, line 57, warning: 39 characters of junk seen at toplevel
[711] UCollate.pm:68> INFO - Overriding locale 'lt-LT' defaults 'variable = shifted' with 'variable = non-ignorable'
[711] UCollate.pm:68> INFO - Overriding locale 'lt-LT' defaults 'normalization = NFD' with 'normalization = prenormalized'
[711] Biber.pm:3921> INFO - Sorting list 'anyt/global//global/global' of type 'entry' with template 'anyt' and locale 'lt-LT'
[726] bbl.pm:636> INFO - Writing 'kursinis.bbl' with encoding 'UTF-8'
[732] bbl.pm:739> INFO - Output to kursinis.bbl
[732] Biber.pm:110> INFO - WARNINGS: 2
