{
	"bendruomene" : {
		"pareigos" : {
			"vyriausysis" : {
				"vardas" : "Jonas",
				"pavarde" : "Jonaitis"
			},
			"buhalteris" : {
				"vardas" : "Stase",
				"pavarde" : "Stasiaviciene"
			}
		},
		"mokesciai" : [{
			"pavadinimas" : "Nario mokestis",
			"valiuta" : "eur",
			"kiekis" : 60
		}],
		"samdytosPaslaugos" : [{
			"pavadinimas" : "Siuksliu vezimas",
			"kaina" : {
				"valiuta" : "eur",
				"kiekis" : 5
			},
			"nuolatine" : true,
			"daznis" : {
				"intervalas" : "diena",
				"kiekis" : 1
			}
		}, {
			"pavadinimas" : "Zoles pjovimas",
			"kaina" : {
				"valiuta" : "eur",
				"kiekis" : 20
			},
			"nuolatine" : true,
			"daznis" : {
				"intervalas" : "metai",
				"kiekis" : 8
			}
		}, {
			"pavadinimas" : "Namo sienos perdazymas",
			"kaina" : {
				"valiuta" : "eur",
				"kiekis" : 5000
			},
			"nuolatine" : false
		}],
		"namas" : {
			"laiptines" : [{
				"nr" : 1,
				"butai" : [{
					"nr" : 1,
					"gyventojai" : [{
						"vardas" : "Jonas",
						"pavarde" : "Jonaitis",
						"savininkas" : true
					}, {
						"vardas" : "Joana",
						"pavarde" : "Jonaitiene"
					}, {
						"vardas" : "Ricardas",
						"pavarde" : "Ricardauskas",
						"nuomininkas" : true,
						"nuomosKaina" : {
							"valiuta" : "eur",
							"kiekis" : 60
						}
					}],
					"dydis" : {
						"matVnt" : "m^2",
						"kiekis" : 60
					},
					"garazas" : 45
				}, {
					"nr" : 2,
					"gyventojai" : [{
						"vardas" : "Petras",
						"pavarde" : "Petraitis",
						"savininkas" : true
					}, {
						"vardas" : "Petra",
						"pavarde" : "Petraitiene"
					}],
					"dydis" : {
						"matVnt" : "m^2",
						"kiekis" : 90.5
					},
					"garazas" : 7
				}],
				"valantisButas" : 2
			}, {
				"nr" : 2,
				"butai" : [{
					"nr" : 3,
					"gyventojai" : [{
						"vardas" : "Stasys",
						"pavarde" : "Stasiavicius",
						"savininkas" : true
					}, {
						"vardas" : "Stase",
						"pavarde" : "Stasiaviciene"
					}, {
						"vardas" : "Stasiukas",
						"pavarde" : "Stasiavicius"
					}],
					"dydis" : {
						"matVnt" : "m^2",
						"kiekis" : 60
					},
					"garazas" : 33
				}, {
					"nr" : 4,
					"gyventojai" : [{
						"vardas" : "Povilas",
						"pavarde" : "Povilaitis"
					}],
					"dydis" : {
						"matVnt" : "m^2",
						"kiekis" : 75
					}
				}],
				"valantisButas" : 2
			}]
		}
	}
}
