%%%% Starting test Lexer
Group begin: Lexer
Group begin: Empty token
Test begin:
  source-file: "test/lexer_test.scm"
  source-line: 12
  source-form: (test-equal (quote ()) tokens)
Test end:
  result-kind: pass
  actual-value: ()
  expected-value: ()
Group end: Empty token
Group begin: Comment
Test begin:
  source-file: "test/lexer_test.scm"
  source-line: 15
  source-form: (test-equal (quote (OPEN_PAREN)) (tokenize "(--)"))
Test end:
  result-kind: pass
  actual-value: (OPEN_PAREN)
  expected-value: (OPEN_PAREN)
Test begin:
  source-file: "test/lexer_test.scm"
  source-line: 16
  source-form: (test-equal (quote (OPEN_PAREN CLOSE_PAREN)) (tokenize "(--\n)"))
Test end:
  result-kind: pass
  actual-value: (OPEN_PAREN CLOSE_PAREN)
  expected-value: (OPEN_PAREN CLOSE_PAREN)
Test begin:
  source-file: "test/lexer_test.scm"
  source-line: 17
  source-form: (test-equal (quote (OPEN_PAREN CLOSE_PAREN)) (tokenize "(/*.**/)"))
Test end:
  result-kind: pass
  actual-value: (OPEN_PAREN CLOSE_PAREN)
  expected-value: (OPEN_PAREN CLOSE_PAREN)
Group end: Comment
Group begin: Simple terminal token
Test begin:
  source-file: "test/lexer_test.scm"
  source-line: 21
  source-form: (test-equal (quote (OPEN_PAREN)) (tokenize input))
Test end:
  result-kind: pass
  actual-value: (OPEN_PAREN)
  expected-value: (OPEN_PAREN)
Group end: Simple terminal token
Group begin: Simple terminal token with space
Test begin:
  source-file: "test/lexer_test.scm"
  source-line: 25
  source-form: (test-equal (quote (OPEN_PAREN)) (tokenize input))
Test end:
  result-kind: pass
  actual-value: (OPEN_PAREN)
  expected-value: (OPEN_PAREN)
Group end: Simple terminal token with space
Group begin: All terminal non-keyword tokens
Test begin:
  source-file: "test/lexer_test.scm"
  source-line: 29
  source-form: (test-equal (quote (OPEN_PAREN CLOSE_PAREN LT GT MINUS DOT OPEN_SQ_PAREN CLOSE_SQ_PAREN COLON COMMA)) (tokenize input))
Test end:
  result-kind: pass
  actual-value: (OPEN_PAREN CLOSE_PAREN LT GT MINUS DOT OPEN_SQ_PAREN CLOSE_SQ_PAREN COLON COMMA)
  expected-value: (OPEN_PAREN CLOSE_PAREN LT GT MINUS DOT OPEN_SQ_PAREN CLOSE_SQ_PAREN COLON COMMA)
Group end: All terminal non-keyword tokens
Group begin: All terminal keyword tokens
Test begin:
  source-file: "test/lexer_test.scm"
  source-line: 33
  source-form: (test-equal (quote (AS WHERE AS WHERE MATCHING)) (tokenize input))
Test end:
  result-kind: pass
  actual-value: (AS WHERE AS WHERE MATCHING)
  expected-value: (AS WHERE AS WHERE MATCHING)
Group end: All terminal keyword tokens
Group begin: Parse quoted text
Test begin:
  source-file: "test/lexer_test.scm"
  source-line: 37
  source-form: (test-equal (quote ((QUOTED_TEXT "test"))) (tokenize input))
Test end:
  result-kind: pass
  actual-value: ((QUOTED_TEXT "test"))
  expected-value: ((QUOTED_TEXT "test"))
Group end: Parse quoted text
Group begin: Parse double quoted text
Test begin:
  source-file: "test/lexer_test.scm"
  source-line: 41
  source-form: (test-equal (quote ((DOUBLE_QUOTED_TEXT "test"))) (tokenize input))
Test end:
  result-kind: pass
  actual-value: ((DOUBLE_QUOTED_TEXT "test"))
  expected-value: ((DOUBLE_QUOTED_TEXT "test"))
Group end: Parse double quoted text
Group begin: Convert tokens back to string
Test begin:
  source-file: "test/lexer_test.scm"
  source-line: 47
  source-form: (test-equal (quote ("(" ")" " AS " "'test'")) strings)
Test end:
  result-kind: pass
  actual-value: ("(" ")" " AS " "'test'")
  expected-value: ("(" ")" " AS " "'test'")
Group end: Convert tokens back to string
Group end: Lexer
# of expected passes      11
