[1] Config.pm:354> INFO - This is Biber 2.7 (beta)
[2] Config.pm:357> INFO - Logfile is 'kursinis.bbl.blg'
[65] biber:303> INFO - === Sun Sep  9, 2018, 11:30:18
[227] Utils.pm:180> ERROR - Cannot find control file 'kursinis.bbl.bcf'! - did you pass the "backend=biber" option to BibLaTeX?
[227] Biber.pm:114> INFO - ERRORS: 1
