\boolfalse {citerequest}\boolfalse {citetracker}\boolfalse {pagetracker}\boolfalse {backtracker}\relax 
\defcounter {refsection}{0}\relax 
\select@language {lithuanian}
\defcounter {refsection}{0}\relax 
\contentsline {section}{\numberline {1.}Įvadas}{3}% 
\defcounter {refsection}{0}\relax 
\contentsline {section}{\numberline {2.}Įmonės apibūdinimas}{4}% 
\defcounter {refsection}{0}\relax 
\contentsline {section}{\numberline {3.}Praktikos veiklos aprašymas}{5}% 
\defcounter {refsection}{0}\relax 
\contentsline {section}{\numberline {4.}VTIPS}{6}% 
\defcounter {refsection}{0}\relax 
\contentsline {section}{\numberline {5.}Procesai}{7}% 
\defcounter {refsection}{0}\relax 
\contentsline {section}{\numberline {6.}Funkcinis programavimas}{8}% 
\defcounter {refsection}{0}\relax 
\contentsline {section}{\numberline {7.}ViPSIS}{9}% 
\defcounter {refsection}{0}\relax 
\contentsline {section}{\numberline {8.}Solr paieškos modulis}{10}% 
\defcounter {refsection}{0}\relax 
\contentsline {section}{\numberline {9.}Dinaminių formų modulis}{11}% 
\defcounter {refsection}{0}\relax 
\contentsline {section}{\numberline {10.}Integraciniai ViPSIS testai}{13}% 
\defcounter {refsection}{0}\relax 
\contentsline {section}{\numberline {11.}Jenkins}{14}% 
\defcounter {refsection}{0}\relax 
\contentsline {section}{\numberline {12.}Rezultatai}{15}% 
