[0] Config.pm:304> INFO - This is Biber 2.12
[1] Config.pm:307> INFO - Logfile is 'kursinis.blg'
[53] biber:315> INFO - === Tue Apr 23, 2019, 22:39:11
[113] Biber.pm:371> INFO - Reading 'kursinis.bcf'
[237] Biber.pm:889> INFO - Found 0 citekeys in bib section 0
[279] Utils.pm:193> WARN - The file 'kursinis.bcf' does not contain any citations!
[290] bbl.pm:636> INFO - Writing 'kursinis.bbl' with encoding 'UTF-8'
[291] bbl.pm:739> INFO - Output to kursinis.bbl
[291] Biber.pm:110> INFO - WARNINGS: 1
