bias;w1;w2;w3;w4
-1.4441069999001386;0.23641037048919636;2.0883469035159887;-2.623024708782268;-2.7711556063976395
-0.4539474624300739;0.5304868772668708;-0.6541517620221242;0.8899942229176537;0.7938384576723084
-5.165369584539729;-1.2564617027026332;-2.3517901927243328;6.962986773406368;6.516774088213562
-6.256330345792633;-1.5012154503408994;-2.837604675542521;8.057893309242349;7.801477823566451
2.7055167686380663;0.8573184136681729;-2.2314138152856096;3.106899437315893;3.133679697495154