bias;w1;w2;w3;w4;w5
0.3409621995547026;4.8607913243182095;-1.9751064255818873;-1.558605012629927;-1.7081683099527376;-4.736806698199084
-0.3434147465663999;-4.835390471408402;0.27053445298686524;-5.750800555904032;-7.093165006757537;5.509634476615148
-4.956559933427182;-5.563880920907959;0.4153193081652463;5.4957387892755145;6.587239800441312;-0.013037881279544642